2.1: Alpha Diversity – Statistical Analysis of Metagenomic Data
…
  test_table <- broom::tidy(test)
  test_table$Metric <- metric
  
  return(test_table)
})

PW_Wilcox_table <- bind_rows(results_list) %>%
  select(Metric, group1, group2, p.value)%>%
  arrange(p.value)

print(PW_Wilcox_table)

# A tibble: 24 × 4
   Metric     group1                 group2                  p.value
   <chr>      <chr>                  <chr>                     <dbl>
 1 Observed   t2d                    cirrhosis              7.87e-11
 2 Shannon    ibd_ulcerative_colitis cirrhosis              1.06e-10
 3 Simpson    ibd_ulcerative_colitis cirrhosis              4.58e-10
 4 InvSimpson ibd_ulcerative_colitis cirrhosis              4.58e-10
 5 Shannon    cirrhosis              cancer                 9.05e- 8
 6 Shannon    t2d                    ibd_ulcerative_colitis 1.62e- 7
 7 Observed   ibd_ulcerative_colitis cirrhosis              3.92e- 7
 8 Simpson    cirrhosis              cancer                 1.28e- 6
 9 InvSimpson cirrhosis              cancer                 1.28e- 6
10 Simpson    t2d                    ibd_ulcerative_colitis 2.76e- 6
# ℹ 14 more rows
…
